<?xml version="1.0" encoding="UTF-8" standalone="no"?>
<!DOCTYPE svg PUBLIC "-//W3C//DTD SVG 1.1//EN" "http://www.w3.org/Graphics/SVG/1.1/DTD/svg11.dtd">
<svg width="100%" height="100%" viewBox="0 0 267 267" version="1.1" xmlns="http://www.w3.org/2000/svg" xmlns:xlink="http://www.w3.org/1999/xlink" xml:space="preserve" xmlns:serif="http://www.serif.com/" style="fill-rule:evenodd;clip-rule:evenodd;stroke-linejoin:round;stroke-miterlimit:2;">
    <g transform="matrix(4.16667,0,0,4.16667,-6710.52,-6104.45)">
        <g transform="matrix(1,0,0,1,98.4567,0)">
            <g transform="matrix(0.798273,0,0,0.798273,311.466,301.985)">
                <circle cx="1544" cy="1497" r="40" style="fill:rgb(213,213,213);"/>
            </g>
            <path d="M1539.76,1497L1529.12,1507.64C1527.95,1508.81 1527.95,1510.71 1529.12,1511.88C1530.29,1513.05 1532.19,1513.05 1533.36,1511.88L1544,1501.24L1554.64,1511.88C1555.81,1513.05 1557.71,1513.05 1558.88,1511.88C1560.05,1510.71 1560.05,1508.81 1558.88,1507.64L1548.24,1497L1558.88,1486.36C1560.05,1485.19 1560.05,1483.29 1558.88,1482.12C1557.71,1480.95 1555.81,1480.95 1554.64,1482.12L1544,1492.76L1533.36,1482.12C1532.19,1480.95 1530.29,1480.95 1529.12,1482.12C1527.95,1483.29 1527.95,1485.19 1529.12,1486.36L1539.76,1497Z" style="fill:white;"/>
        </g>
    </g>
</svg>
