<?xml version="1.0" encoding="UTF-8" standalone="no"?>
<!DOCTYPE svg PUBLIC "-//W3C//DTD SVG 1.1//EN" "http://www.w3.org/Graphics/SVG/1.1/DTD/svg11.dtd">
<svg width="100%" height="100%" viewBox="0 0 7867 7746" version="1.1" xmlns="http://www.w3.org/2000/svg" xmlns:xlink="http://www.w3.org/1999/xlink" xml:space="preserve" xmlns:serif="http://www.serif.com/" style="fill-rule:evenodd;clip-rule:evenodd;stroke-linejoin:round;stroke-miterlimit:2;">
    <g transform="matrix(4.16667,0,0,4.16667,0,0)">
        <g transform="matrix(4.16667,0,0,4.16667,0,0)">
            <path d="M435.422,423.338C435.422,428.517 431.214,432.713 426.047,432.713L26.047,432.713C20.88,432.713 16.672,428.517 16.672,423.338C16.672,418.158 20.88,413.963 26.047,413.963L426.047,413.963C431.214,413.963 435.422,418.158 435.422,423.338ZM391.714,396.838C396.88,396.838 401.089,392.638 401.089,387.463C401.089,382.283 396.88,378.088 391.714,378.088L60.38,378.088C55.214,378.088 51.005,382.283 51.005,387.463C51.005,392.638 55.214,396.838 60.38,396.838L391.714,396.838ZM305.422,185.338C310.63,185.338 314.797,189.533 314.797,194.713L314.797,356.542C314.797,361.721 310.63,365.917 305.422,365.917C300.255,365.917 296.047,361.721 296.047,356.542L296.047,194.713C296.047,189.533 300.255,185.338 305.422,185.338ZM262.13,194.713C262.13,189.533 257.922,185.338 252.755,185.338C247.589,185.338 243.38,189.533 243.38,194.713L243.38,356.542C243.38,361.721 247.589,365.917 252.755,365.917C257.922,365.917 262.13,361.721 262.13,356.542L262.13,194.713ZM200.089,185.338C205.255,185.338 209.464,189.533 209.464,194.713L209.464,356.542C209.464,361.721 205.255,365.917 200.089,365.917C194.922,365.917 190.714,361.721 190.714,356.542L190.714,194.713C190.714,189.533 194.922,185.338 200.089,185.338ZM156.797,194.713C156.797,189.533 152.589,185.338 147.422,185.338C142.255,185.338 138.047,189.533 138.047,194.713L138.047,356.542C138.047,361.721 142.255,365.917 147.422,365.917C152.589,365.917 156.797,361.721 156.797,356.542L156.797,194.713ZM94.755,185.338C99.922,185.338 104.13,189.533 104.13,194.713L104.13,356.542C104.13,361.721 99.922,365.917 94.755,365.917C89.589,365.917 85.38,361.721 85.38,356.542L85.38,194.713C85.38,189.533 89.589,185.338 94.755,185.338ZM367.464,194.713C367.464,189.533 363.297,185.338 358.089,185.338C352.922,185.338 348.714,189.533 348.714,194.713L348.714,356.542C348.714,361.721 352.922,365.917 358.089,365.917C363.297,365.917 367.464,361.721 367.464,356.542L367.464,194.713ZM401.089,162.271C401.089,167.446 396.88,171.646 391.714,171.646L60.38,171.646C55.214,171.646 51.005,167.446 51.005,162.271C51.005,157.092 55.214,152.896 60.38,152.896L391.714,152.896C396.88,152.896 401.089,157.092 401.089,162.271ZM430.214,135.417C434.547,135.417 438.297,132.454 439.339,128.246C440.339,124.038 438.339,119.679 434.505,117.704L231.755,13.538C229.089,12.163 225.88,12.154 223.214,13.513L17.63,117.679C13.755,119.642 11.755,124 12.755,128.221C13.755,132.442 17.547,135.417 21.88,135.417L430.214,135.417ZM61.13,116.667L227.422,32.4L391.464,116.667L61.13,116.667ZM255.214,83.263C255.214,99.158 242.339,112.046 226.422,112.046C210.547,112.046 197.63,99.158 197.63,83.263C197.63,67.367 210.547,54.479 226.422,54.479C242.339,54.479 255.214,67.367 255.214,83.263Z" style="fill:rgb(86,126,202);"/>
        </g>
        <g transform="matrix(4.16667,0,0,4.16667,0,0)">
            <path d="M43.889,147.917C40.537,151.753 38.505,156.775 38.505,162.271C38.505,174.346 48.325,184.146 60.38,184.146L75.605,184.146C73.868,187.277 72.88,190.879 72.88,194.713L72.88,356.542C72.88,359.77 73.581,362.834 74.843,365.588L60.38,365.588C48.325,365.588 38.505,375.378 38.505,387.463C38.505,392.788 40.415,397.67 43.585,401.463L26.047,401.463C13.992,401.463 4.172,411.253 4.172,423.338C4.172,435.422 13.992,445.213 26.047,445.213L426.047,445.213C438.103,445.213 447.922,435.422 447.922,423.338C447.922,411.253 438.103,401.463 426.047,401.463L408.509,401.463C411.679,397.67 413.589,392.788 413.589,387.463C413.589,375.378 403.769,365.588 391.714,365.588L378.017,365.588C379.27,362.834 379.964,359.77 379.964,356.542L379.964,194.713C379.964,190.879 378.986,187.277 377.259,184.146L391.714,184.146C403.769,184.146 413.589,174.346 413.589,162.271C413.589,156.775 411.558,151.753 408.205,147.917L430.214,147.917C440.3,147.917 449.048,141.045 451.473,131.249C451.482,131.211 451.491,131.174 451.5,131.136C453.829,121.335 449.158,111.192 440.231,106.592L237.468,2.419C231.258,-0.783 223.767,-0.797 217.54,2.374C217.564,2.362 11.981,106.529 11.981,106.529C2.946,111.105 -1.74,121.259 0.592,131.103C2.927,140.956 11.765,147.917 21.88,147.917L43.889,147.917ZM435.422,423.338C435.422,428.517 431.214,432.713 426.047,432.713L26.047,432.713C20.88,432.713 16.672,428.517 16.672,423.338C16.672,418.158 20.88,413.963 26.047,413.963L426.047,413.963C431.214,413.963 435.422,418.158 435.422,423.338ZM391.714,396.838C396.88,396.838 401.089,392.638 401.089,387.463C401.089,382.283 396.88,378.088 391.714,378.088L60.38,378.088C55.214,378.088 51.005,382.283 51.005,387.463C51.005,392.638 55.214,396.838 60.38,396.838L391.714,396.838ZM305.422,185.338C310.63,185.338 314.797,189.533 314.797,194.713L314.797,356.542C314.797,361.721 310.63,365.917 305.422,365.917C300.255,365.917 296.047,361.721 296.047,356.542L296.047,194.713C296.047,189.533 300.255,185.338 305.422,185.338ZM262.13,194.713C262.13,189.533 257.922,185.338 252.755,185.338C247.589,185.338 243.38,189.533 243.38,194.713L243.38,356.542C243.38,361.721 247.589,365.917 252.755,365.917C257.922,365.917 262.13,361.721 262.13,356.542L262.13,194.713ZM200.089,185.338C205.255,185.338 209.464,189.533 209.464,194.713L209.464,356.542C209.464,361.721 205.255,365.917 200.089,365.917C194.922,365.917 190.714,361.721 190.714,356.542L190.714,194.713C190.714,189.533 194.922,185.338 200.089,185.338ZM156.797,194.713C156.797,189.533 152.589,185.338 147.422,185.338C142.255,185.338 138.047,189.533 138.047,194.713L138.047,356.542C138.047,361.721 142.255,365.917 147.422,365.917C152.589,365.917 156.797,361.721 156.797,356.542L156.797,194.713ZM94.755,185.338C99.922,185.338 104.13,189.533 104.13,194.713L104.13,356.542C104.13,361.721 99.922,365.917 94.755,365.917C89.589,365.917 85.38,361.721 85.38,356.542L85.38,194.713C85.38,189.533 89.589,185.338 94.755,185.338ZM367.464,194.713C367.464,189.533 363.297,185.338 358.089,185.338C352.922,185.338 348.714,189.533 348.714,194.713L348.714,356.542C348.714,361.721 352.922,365.917 358.089,365.917C363.297,365.917 367.464,361.721 367.464,356.542L367.464,194.713ZM128.272,184.146L113.906,184.146C115.642,187.277 116.63,190.879 116.63,194.713L116.63,356.542C116.63,359.77 115.93,362.834 114.668,365.588L127.51,365.588C126.248,362.834 125.547,359.77 125.547,356.542L125.547,194.713C125.547,190.879 126.535,187.277 128.272,184.146ZM180.939,184.146L166.572,184.146C168.309,187.277 169.297,190.879 169.297,194.713L169.297,356.542C169.297,359.77 168.597,362.834 167.335,365.588L180.176,365.588C178.914,362.834 178.214,359.77 178.214,356.542L178.214,194.713C178.214,190.879 179.202,187.277 180.939,184.146ZM233.605,184.146L219.239,184.146C220.976,187.277 221.964,190.879 221.964,194.713L221.964,356.542C221.964,359.77 221.263,362.834 220.001,365.588L232.843,365.588C231.581,362.834 230.88,359.77 230.88,356.542L230.88,194.713C230.88,190.879 231.868,187.277 233.605,184.146ZM286.272,184.146L271.906,184.146C273.642,187.277 274.63,190.879 274.63,194.713L274.63,356.542C274.63,359.77 273.93,362.834 272.668,365.588L285.51,365.588C284.248,362.834 283.547,359.77 283.547,356.542L283.547,194.713C283.547,190.879 284.535,187.277 286.272,184.146ZM338.939,184.146L324.592,184.146C326.319,187.277 327.297,190.879 327.297,194.713L327.297,356.542C327.297,359.77 326.604,362.834 325.35,365.588L338.176,365.588C336.914,362.834 336.214,359.77 336.214,356.542L336.214,194.713C336.214,190.879 337.202,187.277 338.939,184.146ZM401.089,162.271C401.089,167.446 396.88,171.646 391.714,171.646L60.38,171.646C55.214,171.646 51.005,167.446 51.005,162.271C51.005,157.092 55.214,152.896 60.38,152.896L391.714,152.896C396.88,152.896 401.089,157.092 401.089,162.271ZM430.214,135.417C434.547,135.417 438.297,132.454 439.339,128.246C440.339,124.038 438.339,119.679 434.505,117.704L231.755,13.538C229.089,12.163 225.88,12.154 223.214,13.513L17.63,117.679C13.755,119.642 11.755,124 12.755,128.221C13.755,132.442 17.547,135.417 21.88,135.417L430.214,135.417ZM61.13,116.667L227.422,32.4L391.464,116.667L61.13,116.667ZM255.214,83.263C255.214,99.158 242.339,112.046 226.422,112.046C210.547,112.046 197.63,99.158 197.63,83.263C197.63,67.367 210.547,54.479 226.422,54.479C242.339,54.479 255.214,67.367 255.214,83.263ZM263.443,64.956C266.178,70.471 267.714,76.688 267.714,83.263C267.714,90.891 265.647,98.036 262.038,104.167L339.774,104.167L263.443,64.956ZM113.452,104.167L190.82,104.167C187.204,98.036 185.13,90.891 185.13,83.263C185.13,77.061 186.501,71.179 188.956,65.906L113.452,104.167Z" style="fill:rgb(244,249,252);"/>
        </g>
    </g>
</svg>
