<?xml version="1.0" encoding="UTF-8" standalone="no"?>
<!DOCTYPE svg PUBLIC "-//W3C//DTD SVG 1.1//EN" "http://www.w3.org/Graphics/SVG/1.1/DTD/svg11.dtd">
<svg width="100%" height="100%" viewBox="0 0 2538 1634" version="1.1" xmlns="http://www.w3.org/2000/svg" xmlns:xlink="http://www.w3.org/1999/xlink" xml:space="preserve" xmlns:serif="http://www.serif.com/" style="fill-rule:evenodd;clip-rule:evenodd;stroke-linejoin:round;stroke-miterlimit:2;">
    <g transform="matrix(4.16667,0,0,4.16667,0,0)">
        <path d="M304.907,12.505L304.051,12.5C294.922,12.499 285.881,14.063 277.909,17.225C271.063,19.942 206.167,44.15 142.784,67.754C111.134,79.538 79.921,91.15 56.621,99.817C44.971,104.15 17.929,114.204 17.929,114.204C14.646,115.425 12.475,118.571 12.5,122.075C12.525,125.579 14.742,128.696 18.042,129.867C18.042,129.867 25.275,132.463 28.638,133.683C35.367,136.125 44.946,139.633 56.321,143.879C77.729,151.875 105.471,162.488 132.604,173.592L132.604,286.667C132.604,289.417 133.963,291.992 136.234,293.546C185.65,327.342 320.817,373.333 473.1,294.058C475.854,292.625 477.584,289.775 477.584,286.667L477.584,174.304C500.971,164.863 523.521,155.746 542.071,148.25L542.071,293.563C533.775,295.579 527.388,300.571 522.713,306.892C516.821,314.858 513.563,324.967 511.688,334.225C509.788,343.613 509.167,352.879 509.009,359.717C508.929,363.154 508.967,366.029 509.021,368.063L509.163,371.379L509.163,371.383C509.454,375.763 513.092,379.167 517.479,379.167L582.863,379.167C587.338,379.167 591.013,375.633 591.188,371.163L591.246,367.858C591.254,365.838 591.225,362.971 591.071,359.542C590.771,352.721 589.984,343.492 588,334.146C586.046,324.933 582.784,314.904 577.117,306.996C572.692,300.817 566.634,295.767 558.738,293.658L558.738,141.479C567.179,137.958 574.646,134.596 580.275,131.971C583.663,130.396 591.254,126.696 591.254,126.696C594.225,125.196 596.017,122.075 595.817,118.758C595.621,115.438 593.467,112.554 590.342,111.421L590.338,111.421L590.329,111.417L551.85,97.467C528.667,89.058 497.596,77.792 466.067,66.35C402.967,43.458 338.1,19.904 330.721,17.163C322.656,14.163 313.754,12.6 304.907,12.505ZM574.504,362.5L525.634,362.5C525.642,361.742 525.654,360.942 525.671,360.104C525.817,353.833 526.388,345.621 528.021,337.529C529.684,329.313 532.309,321.942 536.113,316.804C539.671,311.992 544.096,309.258 550.404,309.258C555.921,309.258 560.05,311.788 563.567,316.7C567.292,321.9 569.942,329.346 571.696,337.608C573.425,345.742 574.142,353.992 574.421,360.279C574.454,361.05 574.484,361.792 574.504,362.5ZM149.271,282.183L149.271,180.463C209.638,205.375 271.25,230.742 278.046,233.296C293.2,238.996 312.45,240.179 330.75,233.296C338.784,230.275 400.242,205.521 460.917,181.033L460.917,281.575C320.517,352.475 196.909,312.567 149.271,282.183ZM284.054,32.717C295.934,28.004 311.884,27.938 324.913,32.783C332.371,35.558 397.346,59.146 460.379,82.017C491.913,93.458 522.984,104.725 546.171,113.133L565.813,120.258C560.409,122.679 554.088,125.413 547.279,128.167C525.771,136.863 496.45,148.713 466.134,160.954C401.775,186.938 333.175,214.579 324.884,217.696C310.721,223.025 295.659,222.117 283.917,217.696C277.013,215.1 208.184,186.75 144.117,160.304C115.129,148.338 85.009,136.804 62.154,128.267C55.825,125.904 50.05,123.771 45.009,121.917L62.429,115.438C85.734,106.771 116.946,95.158 148.6,83.371C211.809,59.833 276.988,35.521 284.054,32.717Z" style="fill:rgb(86,126,202);"/>
        <path d="M304.099,0.001L304.052,0C293.311,-0.001 282.681,1.884 273.3,5.606L273.298,5.606C266.465,8.318 201.688,32.479 138.422,56.04C106.773,67.823 75.562,79.435 52.263,88.101C40.614,92.434 13.573,102.488 13.573,102.488C5.365,105.54 -0.062,113.404 0.001,122.164C0.063,130.927 5.61,138.719 13.862,141.647C13.82,141.632 21.023,144.217 24.372,145.433C24.373,145.433 24.373,145.433 24.374,145.434C31.077,147.866 40.618,151.36 51.949,155.59C71.216,162.786 95.637,172.111 120.104,182.002L120.104,286.667C120.104,293.54 123.498,299.977 129.174,303.861C129.175,303.862 129.176,303.863 129.177,303.864C180.476,338.947 320.788,387.44 478.871,305.146C485.757,301.563 490.084,294.438 490.084,286.667L490.084,182.738C503.893,177.161 517.279,171.751 529.571,166.784L529.571,284.924C522.735,288.372 517.11,293.445 512.663,299.459L512.662,299.459C505.688,308.89 501.656,320.784 499.436,331.744L499.436,331.745C497.373,341.94 496.684,352.002 496.512,359.427L496.512,359.429C496.427,363.122 496.467,366.211 496.525,368.395L496.664,371.677C496.714,378.178 498.486,381.519 500.68,383.156C504.485,388.334 510.615,391.667 517.479,391.667L582.863,391.667C594.052,391.667 603.241,382.831 603.678,371.651L603.746,367.91C603.755,365.741 603.724,362.664 603.559,358.983C603.234,351.614 602.37,341.646 600.228,331.551C597.932,320.727 593.937,309.009 587.279,299.716C583.069,293.838 577.728,288.78 571.236,285.267C571.238,285.268 571.238,149.743 571.238,149.743C576.709,147.368 581.576,145.157 585.548,143.304C589.001,141.699 596.731,137.932 596.731,137.932C596.783,137.907 596.836,137.881 596.888,137.854C604.314,134.105 608.791,126.304 608.295,118.014C607.81,109.853 602.598,102.749 594.998,99.821L594.412,99.601L556.111,85.715C532.929,77.307 501.859,66.041 470.331,54.6C470.331,54.6 470.33,54.6 470.33,54.599C407.272,31.723 342.449,8.185 335.075,5.445C325.692,1.956 315.337,0.117 305.042,0.005L305.042,0.043L304.099,0.001ZM304.907,12.505L304.051,12.5C294.922,12.499 285.881,14.063 277.909,17.225C271.063,19.942 206.167,44.15 142.784,67.754C111.134,79.538 79.921,91.15 56.621,99.817C44.971,104.15 17.929,114.204 17.929,114.204C14.646,115.425 12.475,118.571 12.5,122.075C12.525,125.579 14.742,128.696 18.042,129.867C18.042,129.867 25.275,132.463 28.638,133.683C35.367,136.125 44.946,139.633 56.321,143.879C77.729,151.875 105.471,162.488 132.604,173.592L132.604,286.667C132.604,289.417 133.963,291.992 136.234,293.546C185.65,327.342 320.817,373.333 473.1,294.058C475.854,292.625 477.584,289.775 477.584,286.667L477.584,174.304C500.971,164.863 523.521,155.746 542.071,148.25L542.071,293.563C533.775,295.579 527.388,300.571 522.713,306.892C516.821,314.858 513.563,324.967 511.688,334.225C509.788,343.613 509.167,352.879 509.009,359.717C508.929,363.154 508.967,366.029 509.021,368.063L509.163,371.383C509.454,375.763 513.092,379.167 517.479,379.167L582.863,379.167C587.338,379.167 591.013,375.633 591.188,371.163L591.246,367.858C591.254,365.838 591.225,362.971 591.071,359.542C590.771,352.721 589.984,343.492 588,334.146C586.046,324.933 582.784,314.904 577.117,306.996C572.692,300.817 566.634,295.767 558.738,293.658L558.738,141.479C567.179,137.958 574.646,134.596 580.275,131.971C583.663,130.396 591.254,126.696 591.254,126.696C594.225,125.196 596.017,122.075 595.817,118.758C595.621,115.438 593.467,112.554 590.342,111.421L551.85,97.467C528.667,89.058 497.596,77.792 466.067,66.35C402.967,43.458 338.1,19.904 330.721,17.163C322.656,14.163 313.754,12.6 304.907,12.505ZM574.504,362.5L525.634,362.5C525.642,361.742 525.654,360.942 525.671,360.104C525.817,353.833 526.388,345.621 528.021,337.529C529.684,329.313 532.309,321.942 536.113,316.804C539.671,311.992 544.096,309.258 550.404,309.258C555.921,309.258 560.05,311.788 563.567,316.7C567.292,321.9 569.942,329.346 571.696,337.608C573.425,345.742 574.142,353.992 574.421,360.279C574.454,361.05 574.484,361.792 574.504,362.5ZM561.057,350L538.802,350C539.121,346.766 539.593,343.374 540.273,340.005C541.531,333.791 543.282,328.128 546.158,324.243C546.16,324.24 546.162,324.238 546.164,324.236C547.245,322.773 548.487,321.758 550.404,321.758C551.765,321.758 552.535,322.764 553.403,323.976C553.404,323.977 553.404,323.978 553.405,323.979C556.281,327.994 558.114,333.825 559.469,340.204L559.469,340.208C560.17,343.506 560.686,346.825 561.057,350ZM149.271,282.183L149.271,180.463C209.638,205.375 271.25,230.742 278.046,233.296C293.2,238.996 312.45,240.179 330.75,233.296C338.784,230.275 400.242,205.521 460.917,181.033L460.917,281.575C320.517,352.475 196.909,312.567 149.271,282.183ZM161.771,275.146L161.771,199.142C216.301,221.633 267.474,242.676 273.647,244.996C291.332,251.647 313.795,253.028 335.15,244.996C342.443,242.253 393.651,221.649 448.417,199.556L448.417,273.8C321.753,334.669 210.302,303.14 161.773,275.147L161.771,275.146ZM284.054,32.717C295.934,28.004 311.884,27.938 324.913,32.783C332.371,35.558 397.346,59.146 460.379,82.017C491.913,93.458 522.984,104.725 546.171,113.133L565.813,120.258C560.409,122.679 554.088,125.413 547.279,128.167C525.771,136.863 496.45,148.713 466.134,160.954C401.775,186.938 333.175,214.579 324.884,217.696C310.721,223.025 295.659,222.117 283.917,217.696C277.013,215.1 208.184,186.75 144.117,160.304C115.129,148.338 85.009,136.804 62.154,128.267C55.825,125.904 50.05,123.771 45.009,121.917L62.429,115.438C85.734,106.771 116.946,95.158 148.6,83.371C211.809,59.833 276.988,35.521 284.054,32.717ZM531.437,121.086L461.454,149.363C397.223,175.295 328.761,202.885 320.485,205.995C320.484,205.996 320.483,205.996 320.481,205.997C309.363,210.18 297.539,209.468 288.321,205.998C288.32,205.997 288.318,205.996 288.316,205.995C281.43,203.407 212.784,175.126 148.886,148.75C125.471,139.084 101.32,129.698 80.812,121.934L152.962,95.085C216.287,71.504 281.585,47.145 288.665,44.335L288.664,44.336C297.936,40.657 310.385,40.717 320.555,44.499C328.017,47.276 393.038,70.88 456.116,93.767L531.437,121.086Z" style="fill:rgb(244,249,252);"/>
    </g>
</svg>
